^C:\USERS\ALEXL\ONEDRIVE\DOCUMENTS\VISUAL STUDIO 2015\PROJECTS\СИСТЕМЫ СЧИСЛЕНИЯ\СИСТЕМЫ СЧИСЛЕНИЯ\DEBUG\SOURCE.OBJ
C:\USERS\ALEXL\ONEDRIVE\DOCUMENTS\VISUAL STUDIO 2015\PROJECTS\системы счисления\DEBUG\системы счисления.ILK
C:\USERS\ALEXL\ONEDRIVE\DOCUMENTS\VISUAL STUDIO 2015\PROJECTS\системы счисления\DEBUG\системы счисления.EXE
C:\USERS\ALEXL\ONEDRIVE\DOCUMENTS\VISUAL STUDIO 2015\PROJECTS\СИСТЕМЫ СЧИСЛЕНИЯ\DEBUG\СИСТЕМЫ СЧИСЛЕНИЯ.PDB
